{
    "WebKit.framework": 1,
    "libz.tbd": 2,
    "Accelerate.framework": 1,
    "CoreData.framework": 1,
    "CoreLocation.framework": 2,
    "CoreTelephony.framework": 1,
    "CoreText.framework": 1,
    "CoreImage.framework": 1,
    "GLKit.framework": 1,
    "ImageIO.framework": 2,
    "libc++.tbd": 1,
    "OpenGLES.framework": 1,
    "QuartzCore.framework": 1,
    "SystemConfiguration.framework": 1,
    "UIKit.framework": 1,
    "AVFoundation.framework": 1,
    "Social.framework": 1,
    "MessageUI.framework": 1
}