{
  "cordova-plugin-whitelist": {
    "source": {
      "type": "registry",
      "id": "cordova-plugin-whitelist@^1.3.3"
    },
    "is_top_level": true,
    "variables": {}
  },
  "cordova-plugin-device": {
    "source": {
      "type": "registry",
      "id": "cordova-plugin-device@^2.0.2"
    },
    "is_top_level": true,
    "variables": {}
  },
  "cordova-plugin-splashscreen": {
    "source": {
      "type": "registry",
      "id": "cordova-plugin-splashscreen@^5.0.2"
    },
    "is_top_level": true,
    "variables": {}
  },
  "cordova-plugin-ionic-webview": {
    "source": {
      "type": "registry",
      "id": "cordova-plugin-ionic-webview@^1.2.1"
    },
    "is_top_level": true,
    "variables": {}
  },
  "cordova-plugin-ionic-keyboard": {
    "source": {
      "type": "registry",
      "id": "cordova-plugin-ionic-keyboard@^2.1.2"
    },
    "is_top_level": true,
    "variables": {}
  },
  "cordova-plugin-googlemaps": {
    "source": {
      "type": "registry",
      "id": "cordova-plugin-googlemaps@^2.3.4"
    },
    "is_top_level": true,
    "variables": {
      "API_KEY_FOR_ANDROID": "YOUR_ANDROID_API_KEY_IS_HERE",
      "API_KEY_FOR_IOS": "YOUR_IOS_API_KEY_IS_HERE",
      "PLAY_SERVICES_VERSION": "15.0.1",
      "ANDROID_SUPPORT_V4_VERSION": "26.1.0",
      "LOCATION_WHEN_IN_USE_DESCRIPTION": "This app wants to get your location while this app runs only.",
      "LOCATION_ALWAYS_USAGE_DESCRIPTION": "This app wants to get your location always, even this app runs in background."
    }
  },
  "com.googlemaps.ios": {
    "source": {
      "type": "registry",
      "id": "https://github.com/mapsplugin/cordova-plugin-googlemaps-sdk.git#2.7.0"
    },
    "is_top_level": false,
    "variables": {}
  },
  "cordova-sqlite-storage": {
    "source": {
      "type": "registry",
      "id": "cordova-sqlite-storage@^2.3.2"
    },
    "is_top_level": true,
    "variables": {}
  },
  "cordova-plugin-file-transfer": {
    "source": {
      "type": "registry",
      "id": "cordova-plugin-file-transfer@^1.7.1"
    },
    "is_top_level": true,
    "variables": {}
  },
  "cordova-plugin-file": {
    "source": {
      "type": "registry",
      "id": "cordova-plugin-file@>=5.0.0"
    },
    "is_top_level": false,
    "variables": {}
  },
  "cordova-plugin-stripe": {
    "source": {
      "type": "registry",
      "id": "cordova-plugin-stripe@^1.5.3"
    },
    "is_top_level": true,
    "variables": {}
  },
  "cordova-plugin-android-permissions": {
    "source": {
      "type": "registry",
      "id": "cordova-plugin-android-permissions@^1.0.0"
    },
    "is_top_level": true,
    "variables": {}
  },
  "cordova-plugin-camera": {
    "source": {
      "type": "registry",
      "id": "cordova-plugin-camera@^4.0.3"
    },
    "is_top_level": true,
    "variables": {}
  },
  "cordova-plugin-x-socialsharing": {
    "source": {
      "type": "registry",
      "id": "cordova-plugin-x-socialsharing@^5.4.0"
    },
    "is_top_level": true,
    "variables": {}
  },
  "es6-promise-plugin": {
    "source": {
      "type": "registry",
      "id": "es6-promise-plugin@^4.1.0"
    },
    "is_top_level": false,
    "variables": {}
  },
  "cordova-plugin-file-opener2": {
    "source": {
      "type": "registry",
      "id": "cordova-plugin-file-opener2"
    },
    "is_top_level": true,
    "variables": {}
  }
}